^C:\USERS\MICHEL\DOWNLOADS\FRANKYL\CHAPTER 6 DRAWING IN DIRECT3D\BOX\FX\COLOR.FX
fxc /Fc /Od /T fx_5_0 /Fo "FX\\color.fxo" "C:\Users\Michel\Downloads\FrankyL\Chapter 6 Drawing in Direct3D\Box\FX\color.fx"
^C:\USERS\MICHEL\DOCUMENTS\FRANKLUNA\OWN\1 BOX\FX\COLOR.FX
fxc /Fc /Od /T fx_5_0 /Fo "FX\\color.fxo" "C:\Users\Michel\Documents\FrankLuna\Own\1 Box\FX\color.fx"
^C:\USERS\MICHEL\DOCUMENTS\FRANKLUNA\OWN\4 SHADER\FX\COLOR.FX
fxc /Fc /Od /T fx_5_0 /Fo "FX\\color.fxo" "C:\Users\Michel\Documents\FrankLuna\Own\4 Shader\FX\color.fx"
