^C:\USERS\MICHEL\DOCUMENTS\FRANKLUNA\CHAPTER 6 DRAWING IN DIRECT3D\SHAPES\SHAPESDEMO.CPP|C:\USERS\MICHEL\DOCUMENTS\FRANKLUNA\COMMON\D3DAPP.CPP|C:\USERS\MICHEL\DOCUMENTS\FRANKLUNA\COMMON\D3DUTIL.CPP|C:\USERS\MICHEL\DOCUMENTS\FRANKLUNA\COMMON\GAMETIMER.CPP|C:\USERS\MICHEL\DOCUMENTS\FRANKLUNA\COMMON\GEOMETRYGENERATOR.CPP|C:\USERS\MICHEL\DOCUMENTS\FRANKLUNA\COMMON\MATHHELPER.CPP
C:\USERS\MICHEL\DOCUMENTS\FRANKLUNA\CHAPTER 6 DRAWING IN DIRECT3D\SHAPES\DEBUG\VC120.PDB
C:\USERS\MICHEL\DOCUMENTS\FRANKLUNA\CHAPTER 6 DRAWING IN DIRECT3D\SHAPES\DEBUG\VC120.IDB
C:\USERS\MICHEL\DOCUMENTS\FRANKLUNA\CHAPTER 6 DRAWING IN DIRECT3D\SHAPES\DEBUG\D3DAPP.OBJ
C:\USERS\MICHEL\DOCUMENTS\FRANKLUNA\CHAPTER 6 DRAWING IN DIRECT3D\SHAPES\DEBUG\D3DUTIL.OBJ
C:\USERS\MICHEL\DOCUMENTS\FRANKLUNA\CHAPTER 6 DRAWING IN DIRECT3D\SHAPES\DEBUG\GAMETIMER.OBJ
C:\USERS\MICHEL\DOCUMENTS\FRANKLUNA\CHAPTER 6 DRAWING IN DIRECT3D\SHAPES\DEBUG\GEOMETRYGENERATOR.OBJ
C:\USERS\MICHEL\DOCUMENTS\FRANKLUNA\CHAPTER 6 DRAWING IN DIRECT3D\SHAPES\DEBUG\MATHHELPER.OBJ
C:\USERS\MICHEL\DOCUMENTS\FRANKLUNA\CHAPTER 6 DRAWING IN DIRECT3D\SHAPES\DEBUG\SHAPESDEMO.OBJ
^C:\USERS\MICHEL\DOCUMENTS\FRANKLUNA\COMMON\D3DAPP.CPP
C:\USERS\MICHEL\DOCUMENTS\FRANKLUNA\CHAPTER 6 DRAWING IN DIRECT3D\SHAPES\DEBUG\VC120.PDB
^C:\USERS\MICHEL\DOCUMENTS\FRANKLUNA\COMMON\D3DUTIL.CPP
C:\USERS\MICHEL\DOCUMENTS\FRANKLUNA\CHAPTER 6 DRAWING IN DIRECT3D\SHAPES\DEBUG\VC120.PDB
^C:\USERS\MICHEL\DOCUMENTS\FRANKLUNA\COMMON\GAMETIMER.CPP
C:\USERS\MICHEL\DOCUMENTS\FRANKLUNA\CHAPTER 6 DRAWING IN DIRECT3D\SHAPES\DEBUG\VC120.PDB
^C:\USERS\MICHEL\DOCUMENTS\FRANKLUNA\COMMON\MATHHELPER.CPP
C:\USERS\MICHEL\DOCUMENTS\FRANKLUNA\CHAPTER 6 DRAWING IN DIRECT3D\SHAPES\DEBUG\VC120.PDB
^C:\USERS\MICHEL\DOCUMENTS\FRANKLUNA\CHAPTER 6 DRAWING IN DIRECT3D\SHAPES\SHAPESDEMO.CPP
C:\USERS\MICHEL\DOCUMENTS\FRANKLUNA\CHAPTER 6 DRAWING IN DIRECT3D\SHAPES\DEBUG\VC120.PDB
^C:\USERS\MICHEL\DOCUMENTS\FRANKLUNA\OWN\1 SHAPES\SHAPESDEMO.CPP
C:\USERS\MICHEL\DOCUMENTS\FRANKLUNA\OWN\1 SHAPES\DEBUG\VC120.PDB
C:\USERS\MICHEL\DOCUMENTS\FRANKLUNA\OWN\1 SHAPES\DEBUG\VC120.IDB
C:\USERS\MICHEL\DOCUMENTS\FRANKLUNA\OWN\1 SHAPES\DEBUG\SHAPESDEMO.OBJ
^C:\USERS\MICHEL\DOCUMENTS\FRANKLUNA\COMMON\GEOMETRYGENERATOR.CPP
C:\USERS\MICHEL\DOCUMENTS\FRANKLUNA\OWN\1 SHAPES\DEBUG\VC120.PDB
C:\USERS\MICHEL\DOCUMENTS\FRANKLUNA\OWN\1 SHAPES\DEBUG\VC120.IDB
C:\USERS\MICHEL\DOCUMENTS\FRANKLUNA\OWN\1 SHAPES\DEBUG\GEOMETRYGENERATOR.OBJ
