^C:\USERS\MICHEL\DOCUMENTS\FRANKLUNA\OWN\1 BOX\DEBUG\BOXDEMO.OBJ|C:\USERS\MICHEL\DOCUMENTS\FRANKLUNA\OWN\1 BOX\DEBUG\D3DAPP.OBJ|C:\USERS\MICHEL\DOCUMENTS\FRANKLUNA\OWN\1 BOX\DEBUG\D3DUTIL.OBJ|C:\USERS\MICHEL\DOCUMENTS\FRANKLUNA\OWN\1 BOX\DEBUG\GAMETIMER.OBJ|C:\USERS\MICHEL\DOCUMENTS\FRANKLUNA\OWN\1 BOX\DEBUG\GEOMETRYGENERATOR.OBJ|C:\USERS\MICHEL\DOCUMENTS\FRANKLUNA\OWN\1 BOX\DEBUG\MATHHELPER.OBJ
C:\USERS\MICHEL\DOCUMENTS\FRANKLUNA\OWN\1 BOX\DEBUG\CHAPTER 06 BOX.ILK
C:\USERS\MICHEL\DOCUMENTS\FRANKLUNA\OWN\1 BOX\DEBUG\CHAPTER 06 BOX.EXE
C:\USERS\MICHEL\DOCUMENTS\FRANKLUNA\OWN\1 BOX\DEBUG\CHAPTER 06 BOX.PDB
