^C:\FRANKLUNATIC\CHAPTER 7 LIGHTING\LIGHTING\FX\LIGHTING.FX
^C:\USERS\MICHEL\DOCUMENTS\FRANKLUNA\CHAPTER 7 LIGHTING\LIGHTING\FX\LIGHTING.FX
^C:\USERS\MICHEL\DOCUMENTS\FRANKLUNA\OWN\3 LIGHTING\FX\LIGHTING.FX
