^C:\FRANKLUNATIC\CHAPTER 25 CHARACTER ANIMATION\SKINNEDMESH\DEBUG\BASICMODEL.OBJ|C:\FRANKLUNATIC\CHAPTER 25 CHARACTER ANIMATION\SKINNEDMESH\DEBUG\CAMERA.OBJ|C:\FRANKLUNATIC\CHAPTER 25 CHARACTER ANIMATION\SKINNEDMESH\DEBUG\D3DAPP.OBJ|C:\FRANKLUNATIC\CHAPTER 25 CHARACTER ANIMATION\SKINNEDMESH\DEBUG\D3DUTIL.OBJ|C:\FRANKLUNATIC\CHAPTER 25 CHARACTER ANIMATION\SKINNEDMESH\DEBUG\EFFECTS.OBJ|C:\FRANKLUNATIC\CHAPTER 25 CHARACTER ANIMATION\SKINNEDMESH\DEBUG\GAMETIMER.OBJ|C:\FRANKLUNATIC\CHAPTER 25 CHARACTER ANIMATION\SKINNEDMESH\DEBUG\GEOMETRYGENERATOR.OBJ|C:\FRANKLUNATIC\CHAPTER 25 CHARACTER ANIMATION\SKINNEDMESH\DEBUG\LIGHTHELPER.OBJ|C:\FRANKLUNATIC\CHAPTER 25 CHARACTER ANIMATION\SKINNEDMESH\DEBUG\LOADM3D.OBJ|C:\FRANKLUNATIC\CHAPTER 25 CHARACTER ANIMATION\SKINNEDMESH\DEBUG\MATHHELPER.OBJ|C:\FRANKLUNATIC\CHAPTER 25 CHARACTER ANIMATION\SKINNEDMESH\DEBUG\MESHGEOMETRY.OBJ|C:\FRANKLUNATIC\CHAPTER 25 CHARACTER ANIMATION\SKINNEDMESH\DEBUG\RENDERSTATES.OBJ|C:\FRANKLUNATIC\CHAPTER 25 CHARACTER ANIMATION\SKINNEDMESH\DEBUG\SHADOWMAP.OBJ|C:\FRANKLUNATIC\CHAPTER 25 CHARACTER ANIMATION\SKINNEDMESH\DEBUG\SKINNEDDATA.OBJ|C:\FRANKLUNATIC\CHAPTER 25 CHARACTER ANIMATION\SKINNEDMESH\DEBUG\SKINNEDMESHDEMO.OBJ|C:\FRANKLUNATIC\CHAPTER 25 CHARACTER ANIMATION\SKINNEDMESH\DEBUG\SKINNEDMODEL.OBJ|C:\FRANKLUNATIC\CHAPTER 25 CHARACTER ANIMATION\SKINNEDMESH\DEBUG\SKY.OBJ|C:\FRANKLUNATIC\CHAPTER 25 CHARACTER ANIMATION\SKINNEDMESH\DEBUG\SSAO.OBJ|C:\FRANKLUNATIC\CHAPTER 25 CHARACTER ANIMATION\SKINNEDMESH\DEBUG\TEXTUREMGR.OBJ|C:\FRANKLUNATIC\CHAPTER 25 CHARACTER ANIMATION\SKINNEDMESH\DEBUG\VERTEX.OBJ|C:\FRANKLUNATIC\CHAPTER 25 CHARACTER ANIMATION\SKINNEDMESH\DEBUG\WAVES.OBJ|C:\FRANKLUNATIC\CHAPTER 25 CHARACTER ANIMATION\SKINNEDMESH\DEBUG\XNACOLLISION.OBJ
C:\FRANKLUNATIC\DEBUG\CHAPTER 25 SKINNEDMESH.ILK
C:\FRANKLUNATIC\DEBUG\CHAPTER 25 SKINNEDMESH.EXE
C:\FRANKLUNATIC\DEBUG\CHAPTER 25 SKINNEDMESH.PDB
^C:\USERS\MICHEL\DOCUMENTS\FRANKLUNA\CHAPTER 25 CHARACTER ANIMATION\SKINNEDMESH\DEBUG\BASICMODEL.OBJ|C:\USERS\MICHEL\DOCUMENTS\FRANKLUNA\CHAPTER 25 CHARACTER ANIMATION\SKINNEDMESH\DEBUG\CAMERA.OBJ|C:\USERS\MICHEL\DOCUMENTS\FRANKLUNA\CHAPTER 25 CHARACTER ANIMATION\SKINNEDMESH\DEBUG\D3DAPP.OBJ|C:\USERS\MICHEL\DOCUMENTS\FRANKLUNA\CHAPTER 25 CHARACTER ANIMATION\SKINNEDMESH\DEBUG\D3DUTIL.OBJ|C:\USERS\MICHEL\DOCUMENTS\FRANKLUNA\CHAPTER 25 CHARACTER ANIMATION\SKINNEDMESH\DEBUG\EFFECTS.OBJ|C:\USERS\MICHEL\DOCUMENTS\FRANKLUNA\CHAPTER 25 CHARACTER ANIMATION\SKINNEDMESH\DEBUG\GAMETIMER.OBJ|C:\USERS\MICHEL\DOCUMENTS\FRANKLUNA\CHAPTER 25 CHARACTER ANIMATION\SKINNEDMESH\DEBUG\GEOMETRYGENERATOR.OBJ|C:\USERS\MICHEL\DOCUMENTS\FRANKLUNA\CHAPTER 25 CHARACTER ANIMATION\SKINNEDMESH\DEBUG\LIGHTHELPER.OBJ|C:\USERS\MICHEL\DOCUMENTS\FRANKLUNA\CHAPTER 25 CHARACTER ANIMATION\SKINNEDMESH\DEBUG\LOADM3D.OBJ|C:\USERS\MICHEL\DOCUMENTS\FRANKLUNA\CHAPTER 25 CHARACTER ANIMATION\SKINNEDMESH\DEBUG\MATHHELPER.OBJ|C:\USERS\MICHEL\DOCUMENTS\FRANKLUNA\CHAPTER 25 CHARACTER ANIMATION\SKINNEDMESH\DEBUG\MESHGEOMETRY.OBJ|C:\USERS\MICHEL\DOCUMENTS\FRANKLUNA\CHAPTER 25 CHARACTER ANIMATION\SKINNEDMESH\DEBUG\RENDERSTATES.OBJ|C:\USERS\MICHEL\DOCUMENTS\FRANKLUNA\CHAPTER 25 CHARACTER ANIMATION\SKINNEDMESH\DEBUG\SHADOWMAP.OBJ|C:\USERS\MICHEL\DOCUMENTS\FRANKLUNA\CHAPTER 25 CHARACTER ANIMATION\SKINNEDMESH\DEBUG\SKINNEDDATA.OBJ|C:\USERS\MICHEL\DOCUMENTS\FRANKLUNA\CHAPTER 25 CHARACTER ANIMATION\SKINNEDMESH\DEBUG\SKINNEDMESHDEMO.OBJ|C:\USERS\MICHEL\DOCUMENTS\FRANKLUNA\CHAPTER 25 CHARACTER ANIMATION\SKINNEDMESH\DEBUG\SKINNEDMODEL.OBJ|C:\USERS\MICHEL\DOCUMENTS\FRANKLUNA\CHAPTER 25 CHARACTER ANIMATION\SKINNEDMESH\DEBUG\SKY.OBJ|C:\USERS\MICHEL\DOCUMENTS\FRANKLUNA\CHAPTER 25 CHARACTER ANIMATION\SKINNEDMESH\DEBUG\SSAO.OBJ|C:\USERS\MICHEL\DOCUMENTS\FRANKLUNA\CHAPTER 25 CHARACTER ANIMATION\SKINNEDMESH\DEBUG\TEXTUREMGR.OBJ|C:\USERS\MICHEL\DOCUMENTS\FRANKLUNA\CHAPTER 25 CHARACTER ANIMATION\SKINNEDMESH\DEBUG\VERTEX.OBJ|C:\USERS\MICHEL\DOCUMENTS\FRANKLUNA\CHAPTER 25 CHARACTER ANIMATION\SKINNEDMESH\DEBUG\WAVES.OBJ|C:\USERS\MICHEL\DOCUMENTS\FRANKLUNA\CHAPTER 25 CHARACTER ANIMATION\SKINNEDMESH\DEBUG\XNACOLLISION.OBJ
C:\USERS\MICHEL\DOCUMENTS\FRANKLUNA\CHAPTER 25 CHARACTER ANIMATION\SKINNEDMESH\DEBUG\CHAPTER 25 SKINNEDMESH.ILK
C:\USERS\MICHEL\DOCUMENTS\FRANKLUNA\CHAPTER 25 CHARACTER ANIMATION\SKINNEDMESH\DEBUG\CHAPTER 25 SKINNEDMESH.EXE
C:\USERS\MICHEL\DOCUMENTS\FRANKLUNA\CHAPTER 25 CHARACTER ANIMATION\SKINNEDMESH\DEBUG\CHAPTER 25 SKINNEDMESH.PDB
^C:\USERS\MICHEL\DOCUMENTS\FRANKLUNA\OWN\SKINNEDMESH\DEBUG\BASICMODEL.OBJ|C:\USERS\MICHEL\DOCUMENTS\FRANKLUNA\OWN\SKINNEDMESH\DEBUG\CAMERA.OBJ|C:\USERS\MICHEL\DOCUMENTS\FRANKLUNA\OWN\SKINNEDMESH\DEBUG\D3DAPP.OBJ|C:\USERS\MICHEL\DOCUMENTS\FRANKLUNA\OWN\SKINNEDMESH\DEBUG\D3DUTIL.OBJ|C:\USERS\MICHEL\DOCUMENTS\FRANKLUNA\OWN\SKINNEDMESH\DEBUG\EFFECTS.OBJ|C:\USERS\MICHEL\DOCUMENTS\FRANKLUNA\OWN\SKINNEDMESH\DEBUG\GAMETIMER.OBJ|C:\USERS\MICHEL\DOCUMENTS\FRANKLUNA\OWN\SKINNEDMESH\DEBUG\GEOMETRYGENERATOR.OBJ|C:\USERS\MICHEL\DOCUMENTS\FRANKLUNA\OWN\SKINNEDMESH\DEBUG\LIGHTHELPER.OBJ|C:\USERS\MICHEL\DOCUMENTS\FRANKLUNA\OWN\SKINNEDMESH\DEBUG\LOADM3D.OBJ|C:\USERS\MICHEL\DOCUMENTS\FRANKLUNA\OWN\SKINNEDMESH\DEBUG\MATHHELPER.OBJ|C:\USERS\MICHEL\DOCUMENTS\FRANKLUNA\OWN\SKINNEDMESH\DEBUG\MESHGEOMETRY.OBJ|C:\USERS\MICHEL\DOCUMENTS\FRANKLUNA\OWN\SKINNEDMESH\DEBUG\RENDERSTATES.OBJ|C:\USERS\MICHEL\DOCUMENTS\FRANKLUNA\OWN\SKINNEDMESH\DEBUG\SHADOWMAP.OBJ|C:\USERS\MICHEL\DOCUMENTS\FRANKLUNA\OWN\SKINNEDMESH\DEBUG\SKINNEDDATA.OBJ|C:\USERS\MICHEL\DOCUMENTS\FRANKLUNA\OWN\SKINNEDMESH\DEBUG\SKINNEDMESHDEMO.OBJ|C:\USERS\MICHEL\DOCUMENTS\FRANKLUNA\OWN\SKINNEDMESH\DEBUG\SKINNEDMODEL.OBJ|C:\USERS\MICHEL\DOCUMENTS\FRANKLUNA\OWN\SKINNEDMESH\DEBUG\SKY.OBJ|C:\USERS\MICHEL\DOCUMENTS\FRANKLUNA\OWN\SKINNEDMESH\DEBUG\SSAO.OBJ|C:\USERS\MICHEL\DOCUMENTS\FRANKLUNA\OWN\SKINNEDMESH\DEBUG\TEXTUREMGR.OBJ|C:\USERS\MICHEL\DOCUMENTS\FRANKLUNA\OWN\SKINNEDMESH\DEBUG\VERTEX.OBJ|C:\USERS\MICHEL\DOCUMENTS\FRANKLUNA\OWN\SKINNEDMESH\DEBUG\WAVES.OBJ|C:\USERS\MICHEL\DOCUMENTS\FRANKLUNA\OWN\SKINNEDMESH\DEBUG\XNACOLLISION.OBJ
C:\USERS\MICHEL\DOCUMENTS\FRANKLUNA\OWN\SKINNEDMESH\DEBUG\CHAPTER 25 SKINNEDMESH.ILK
C:\USERS\MICHEL\DOCUMENTS\FRANKLUNA\OWN\SKINNEDMESH\DEBUG\CHAPTER 25 SKINNEDMESH.EXE
C:\USERS\MICHEL\DOCUMENTS\FRANKLUNA\OWN\SKINNEDMESH\DEBUG\CHAPTER 25 SKINNEDMESH.PDB
