^C:\FRANKLUNATIC\CHAPTER 25 CHARACTER ANIMATION\SKINNEDMESH\DEBUG\BASICMODEL.OBJ|C:\FRANKLUNATIC\CHAPTER 25 CHARACTER ANIMATION\SKINNEDMESH\DEBUG\CAMERA.OBJ|C:\FRANKLUNATIC\CHAPTER 25 CHARACTER ANIMATION\SKINNEDMESH\DEBUG\D3DAPP.OBJ|C:\FRANKLUNATIC\CHAPTER 25 CHARACTER ANIMATION\SKINNEDMESH\DEBUG\D3DUTIL.OBJ|C:\FRANKLUNATIC\CHAPTER 25 CHARACTER ANIMATION\SKINNEDMESH\DEBUG\EFFECTS.OBJ|C:\FRANKLUNATIC\CHAPTER 25 CHARACTER ANIMATION\SKINNEDMESH\DEBUG\GAMETIMER.OBJ|C:\FRANKLUNATIC\CHAPTER 25 CHARACTER ANIMATION\SKINNEDMESH\DEBUG\GEOMETRYGENERATOR.OBJ|C:\FRANKLUNATIC\CHAPTER 25 CHARACTER ANIMATION\SKINNEDMESH\DEBUG\LIGHTHELPER.OBJ|C:\FRANKLUNATIC\CHAPTER 25 CHARACTER ANIMATION\SKINNEDMESH\DEBUG\LOADM3D.OBJ|C:\FRANKLUNATIC\CHAPTER 25 CHARACTER ANIMATION\SKINNEDMESH\DEBUG\MATHHELPER.OBJ|C:\FRANKLUNATIC\CHAPTER 25 CHARACTER ANIMATION\SKINNEDMESH\DEBUG\MESHGEOMETRY.OBJ|C:\FRANKLUNATIC\CHAPTER 25 CHARACTER ANIMATION\SKINNEDMESH\DEBUG\RENDERSTATES.OBJ|C:\FRANKLUNATIC\CHAPTER 25 CHARACTER ANIMATION\SKINNEDMESH\DEBUG\SHADOWMAP.OBJ|C:\FRANKLUNATIC\CHAPTER 25 CHARACTER ANIMATION\SKINNEDMESH\DEBUG\SKINNEDDATA.OBJ|C:\FRANKLUNATIC\CHAPTER 25 CHARACTER ANIMATION\SKINNEDMESH\DEBUG\SKINNEDMESHDEMO.OBJ|C:\FRANKLUNATIC\CHAPTER 25 CHARACTER ANIMATION\SKINNEDMESH\DEBUG\SKINNEDMODEL.OBJ|C:\FRANKLUNATIC\CHAPTER 25 CHARACTER ANIMATION\SKINNEDMESH\DEBUG\SKY.OBJ|C:\FRANKLUNATIC\CHAPTER 25 CHARACTER ANIMATION\SKINNEDMESH\DEBUG\SSAO.OBJ|C:\FRANKLUNATIC\CHAPTER 25 CHARACTER ANIMATION\SKINNEDMESH\DEBUG\TEXTUREMGR.OBJ|C:\FRANKLUNATIC\CHAPTER 25 CHARACTER ANIMATION\SKINNEDMESH\DEBUG\VERTEX.OBJ|C:\FRANKLUNATIC\CHAPTER 25 CHARACTER ANIMATION\SKINNEDMESH\DEBUG\WAVES.OBJ|C:\FRANKLUNATIC\CHAPTER 25 CHARACTER ANIMATION\SKINNEDMESH\DEBUG\XNACOLLISION.OBJ
/OUT:"C:\FRANKLUNATIC\DEBUG\CHAPTER 25 SKINNEDMESH.EXE" /INCREMENTAL /NOLOGO /LIBPATH:..\..\Common d3d11.lib d3dx11d.lib D3DCompiler.lib Effects11d.lib dxerr.lib dxgi.lib dxguid.lib kernel32.lib user32.lib gdi32.lib winspool.lib comdlg32.lib advapi32.lib shell32.lib ole32.lib oleaut32.lib uuid.lib odbc32.lib odbccp32.lib /MANIFEST /MANIFESTUAC:"level='asInvoker' uiAccess='false'" /manifest:embed /DEBUG /PDB:"C:\FRANKLUNATIC\DEBUG\CHAPTER 25 SKINNEDMESH.PDB" /SUBSYSTEM:WINDOWS /TLBID:1 /DYNAMICBASE /NXCOMPAT /IMPLIB:"C:\FRANKLUNATIC\DEBUG\CHAPTER 25 SKINNEDMESH.LIB" /MACHINE:X86 DEBUG\CAMERA.OBJDEBUG\D3DAPP.OBJDEBUG\D3DUTIL.OBJDEBUG\GAMETIMER.OBJDEBUG\GEOMETRYGENERATOR.OBJDEBUG\LIGHTHELPER.OBJDEBUG\MATHHELPER.OBJDEBUG\TEXTUREMGR.OBJDEBUG\WAVES.OBJDEBUG\XNACOLLISION.OBJDEBUG\BASICMODEL.OBJDEBUG\EFFECTS.OBJDEBUG\LOADM3D.OBJDEBUG\MESHGEOMETRY.OBJDEBUG\RENDERSTATES.OBJDEBUG\SHADOWMAP.OBJDEBUG\SKINNEDDATA.OBJDEBUG\SKINNEDMODEL.OBJDEBUG\SKINNEDMESHDEMO.OBJDEBUG\SKY.OBJDEBUG\SSAO.OBJDEBUG\VERTEX.OBJ
^C:\USERS\MICHEL\DOCUMENTS\FRANKLUNA\CHAPTER 25 CHARACTER ANIMATION\SKINNEDMESH\DEBUG\BASICMODEL.OBJ|C:\USERS\MICHEL\DOCUMENTS\FRANKLUNA\CHAPTER 25 CHARACTER ANIMATION\SKINNEDMESH\DEBUG\CAMERA.OBJ|C:\USERS\MICHEL\DOCUMENTS\FRANKLUNA\CHAPTER 25 CHARACTER ANIMATION\SKINNEDMESH\DEBUG\D3DAPP.OBJ|C:\USERS\MICHEL\DOCUMENTS\FRANKLUNA\CHAPTER 25 CHARACTER ANIMATION\SKINNEDMESH\DEBUG\D3DUTIL.OBJ|C:\USERS\MICHEL\DOCUMENTS\FRANKLUNA\CHAPTER 25 CHARACTER ANIMATION\SKINNEDMESH\DEBUG\EFFECTS.OBJ|C:\USERS\MICHEL\DOCUMENTS\FRANKLUNA\CHAPTER 25 CHARACTER ANIMATION\SKINNEDMESH\DEBUG\GAMETIMER.OBJ|C:\USERS\MICHEL\DOCUMENTS\FRANKLUNA\CHAPTER 25 CHARACTER ANIMATION\SKINNEDMESH\DEBUG\GEOMETRYGENERATOR.OBJ|C:\USERS\MICHEL\DOCUMENTS\FRANKLUNA\CHAPTER 25 CHARACTER ANIMATION\SKINNEDMESH\DEBUG\LIGHTHELPER.OBJ|C:\USERS\MICHEL\DOCUMENTS\FRANKLUNA\CHAPTER 25 CHARACTER ANIMATION\SKINNEDMESH\DEBUG\LOADM3D.OBJ|C:\USERS\MICHEL\DOCUMENTS\FRANKLUNA\CHAPTER 25 CHARACTER ANIMATION\SKINNEDMESH\DEBUG\MATHHELPER.OBJ|C:\USERS\MICHEL\DOCUMENTS\FRANKLUNA\CHAPTER 25 CHARACTER ANIMATION\SKINNEDMESH\DEBUG\MESHGEOMETRY.OBJ|C:\USERS\MICHEL\DOCUMENTS\FRANKLUNA\CHAPTER 25 CHARACTER ANIMATION\SKINNEDMESH\DEBUG\RENDERSTATES.OBJ|C:\USERS\MICHEL\DOCUMENTS\FRANKLUNA\CHAPTER 25 CHARACTER ANIMATION\SKINNEDMESH\DEBUG\SHADOWMAP.OBJ|C:\USERS\MICHEL\DOCUMENTS\FRANKLUNA\CHAPTER 25 CHARACTER ANIMATION\SKINNEDMESH\DEBUG\SKINNEDDATA.OBJ|C:\USERS\MICHEL\DOCUMENTS\FRANKLUNA\CHAPTER 25 CHARACTER ANIMATION\SKINNEDMESH\DEBUG\SKINNEDMESHDEMO.OBJ|C:\USERS\MICHEL\DOCUMENTS\FRANKLUNA\CHAPTER 25 CHARACTER ANIMATION\SKINNEDMESH\DEBUG\SKINNEDMODEL.OBJ|C:\USERS\MICHEL\DOCUMENTS\FRANKLUNA\CHAPTER 25 CHARACTER ANIMATION\SKINNEDMESH\DEBUG\SKY.OBJ|C:\USERS\MICHEL\DOCUMENTS\FRANKLUNA\CHAPTER 25 CHARACTER ANIMATION\SKINNEDMESH\DEBUG\SSAO.OBJ|C:\USERS\MICHEL\DOCUMENTS\FRANKLUNA\CHAPTER 25 CHARACTER ANIMATION\SKINNEDMESH\DEBUG\TEXTUREMGR.OBJ|C:\USERS\MICHEL\DOCUMENTS\FRANKLUNA\CHAPTER 25 CHARACTER ANIMATION\SKINNEDMESH\DEBUG\VERTEX.OBJ|C:\USERS\MICHEL\DOCUMENTS\FRANKLUNA\CHAPTER 25 CHARACTER ANIMATION\SKINNEDMESH\DEBUG\WAVES.OBJ|C:\USERS\MICHEL\DOCUMENTS\FRANKLUNA\CHAPTER 25 CHARACTER ANIMATION\SKINNEDMESH\DEBUG\XNACOLLISION.OBJ
/OUT:"C:\USERS\MICHEL\DOCUMENTS\FRANKLUNA\CHAPTER 25 CHARACTER ANIMATION\SKINNEDMESH\DEBUG\CHAPTER 25 SKINNEDMESH.EXE" /INCREMENTAL /NOLOGO /LIBPATH:..\..\Common d3d11.lib d3dx11d.lib D3DCompiler.lib Effects11d.lib dxerr.lib dxgi.lib dxguid.lib kernel32.lib user32.lib gdi32.lib winspool.lib comdlg32.lib advapi32.lib shell32.lib ole32.lib oleaut32.lib uuid.lib odbc32.lib odbccp32.lib /MANIFEST /MANIFESTUAC:"level='asInvoker' uiAccess='false'" /manifest:embed /DEBUG /PDB:"C:\USERS\MICHEL\DOCUMENTS\FRANKLUNA\CHAPTER 25 CHARACTER ANIMATION\SKINNEDMESH\DEBUG\CHAPTER 25 SKINNEDMESH.PDB" /SUBSYSTEM:WINDOWS /TLBID:1 /DYNAMICBASE /NXCOMPAT /IMPLIB:"C:\USERS\MICHEL\DOCUMENTS\FRANKLUNA\CHAPTER 25 CHARACTER ANIMATION\SKINNEDMESH\DEBUG\CHAPTER 25 SKINNEDMESH.LIB" /MACHINE:X86 DEBUG\CAMERA.OBJDEBUG\D3DAPP.OBJDEBUG\D3DUTIL.OBJDEBUG\GAMETIMER.OBJDEBUG\GEOMETRYGENERATOR.OBJDEBUG\LIGHTHELPER.OBJDEBUG\MATHHELPER.OBJDEBUG\TEXTUREMGR.OBJDEBUG\WAVES.OBJDEBUG\XNACOLLISION.OBJDEBUG\BASICMODEL.OBJDEBUG\EFFECTS.OBJDEBUG\LOADM3D.OBJDEBUG\MESHGEOMETRY.OBJDEBUG\RENDERSTATES.OBJDEBUG\SHADOWMAP.OBJDEBUG\SKINNEDDATA.OBJDEBUG\SKINNEDMODEL.OBJDEBUG\SKINNEDMESHDEMO.OBJDEBUG\SKY.OBJDEBUG\SSAO.OBJDEBUG\VERTEX.OBJ
^C:\USERS\MICHEL\DOCUMENTS\FRANKLUNA\OWN\SKINNEDMESH\DEBUG\BASICMODEL.OBJ|C:\USERS\MICHEL\DOCUMENTS\FRANKLUNA\OWN\SKINNEDMESH\DEBUG\CAMERA.OBJ|C:\USERS\MICHEL\DOCUMENTS\FRANKLUNA\OWN\SKINNEDMESH\DEBUG\D3DAPP.OBJ|C:\USERS\MICHEL\DOCUMENTS\FRANKLUNA\OWN\SKINNEDMESH\DEBUG\D3DUTIL.OBJ|C:\USERS\MICHEL\DOCUMENTS\FRANKLUNA\OWN\SKINNEDMESH\DEBUG\EFFECTS.OBJ|C:\USERS\MICHEL\DOCUMENTS\FRANKLUNA\OWN\SKINNEDMESH\DEBUG\GAMETIMER.OBJ|C:\USERS\MICHEL\DOCUMENTS\FRANKLUNA\OWN\SKINNEDMESH\DEBUG\GEOMETRYGENERATOR.OBJ|C:\USERS\MICHEL\DOCUMENTS\FRANKLUNA\OWN\SKINNEDMESH\DEBUG\LIGHTHELPER.OBJ|C:\USERS\MICHEL\DOCUMENTS\FRANKLUNA\OWN\SKINNEDMESH\DEBUG\LOADM3D.OBJ|C:\USERS\MICHEL\DOCUMENTS\FRANKLUNA\OWN\SKINNEDMESH\DEBUG\MATHHELPER.OBJ|C:\USERS\MICHEL\DOCUMENTS\FRANKLUNA\OWN\SKINNEDMESH\DEBUG\MESHGEOMETRY.OBJ|C:\USERS\MICHEL\DOCUMENTS\FRANKLUNA\OWN\SKINNEDMESH\DEBUG\RENDERSTATES.OBJ|C:\USERS\MICHEL\DOCUMENTS\FRANKLUNA\OWN\SKINNEDMESH\DEBUG\SHADOWMAP.OBJ|C:\USERS\MICHEL\DOCUMENTS\FRANKLUNA\OWN\SKINNEDMESH\DEBUG\SKINNEDDATA.OBJ|C:\USERS\MICHEL\DOCUMENTS\FRANKLUNA\OWN\SKINNEDMESH\DEBUG\SKINNEDMESHDEMO.OBJ|C:\USERS\MICHEL\DOCUMENTS\FRANKLUNA\OWN\SKINNEDMESH\DEBUG\SKINNEDMODEL.OBJ|C:\USERS\MICHEL\DOCUMENTS\FRANKLUNA\OWN\SKINNEDMESH\DEBUG\SKY.OBJ|C:\USERS\MICHEL\DOCUMENTS\FRANKLUNA\OWN\SKINNEDMESH\DEBUG\SSAO.OBJ|C:\USERS\MICHEL\DOCUMENTS\FRANKLUNA\OWN\SKINNEDMESH\DEBUG\TEXTUREMGR.OBJ|C:\USERS\MICHEL\DOCUMENTS\FRANKLUNA\OWN\SKINNEDMESH\DEBUG\VERTEX.OBJ|C:\USERS\MICHEL\DOCUMENTS\FRANKLUNA\OWN\SKINNEDMESH\DEBUG\WAVES.OBJ|C:\USERS\MICHEL\DOCUMENTS\FRANKLUNA\OWN\SKINNEDMESH\DEBUG\XNACOLLISION.OBJ
/OUT:"C:\USERS\MICHEL\DOCUMENTS\FRANKLUNA\OWN\SKINNEDMESH\DEBUG\CHAPTER 25 SKINNEDMESH.EXE" /INCREMENTAL /NOLOGO /LIBPATH:..\..\Common d3d11.lib d3dx11d.lib D3DCompiler.lib Effects11d.lib dxerr.lib dxgi.lib dxguid.lib kernel32.lib user32.lib gdi32.lib winspool.lib comdlg32.lib advapi32.lib shell32.lib ole32.lib oleaut32.lib uuid.lib odbc32.lib odbccp32.lib /MANIFEST /MANIFESTUAC:"level='asInvoker' uiAccess='false'" /manifest:embed /DEBUG /PDB:"C:\USERS\MICHEL\DOCUMENTS\FRANKLUNA\OWN\SKINNEDMESH\DEBUG\CHAPTER 25 SKINNEDMESH.PDB" /SUBSYSTEM:WINDOWS /TLBID:1 /DYNAMICBASE /NXCOMPAT /IMPLIB:"C:\USERS\MICHEL\DOCUMENTS\FRANKLUNA\OWN\SKINNEDMESH\DEBUG\CHAPTER 25 SKINNEDMESH.LIB" /MACHINE:X86 DEBUG\CAMERA.OBJDEBUG\D3DAPP.OBJDEBUG\D3DUTIL.OBJDEBUG\GAMETIMER.OBJDEBUG\GEOMETRYGENERATOR.OBJDEBUG\LIGHTHELPER.OBJDEBUG\MATHHELPER.OBJDEBUG\TEXTUREMGR.OBJDEBUG\WAVES.OBJDEBUG\XNACOLLISION.OBJDEBUG\BASICMODEL.OBJDEBUG\EFFECTS.OBJDEBUG\LOADM3D.OBJDEBUG\MESHGEOMETRY.OBJDEBUG\RENDERSTATES.OBJDEBUG\SHADOWMAP.OBJDEBUG\SKINNEDDATA.OBJDEBUG\SKINNEDMODEL.OBJDEBUG\SKINNEDMESHDEMO.OBJDEBUG\SKY.OBJDEBUG\SSAO.OBJDEBUG\VERTEX.OBJ
