﻿Build started 3/22/2017 6:43:09 PM.
     1>Project "C:\Users\Michel\Documents\FrankLuna\Own\4 Shader\Box.vcxproj" on node 2 (Build target(s)).
     1>C:\Program Files (x86)\MSBuild\Microsoft.Cpp\v4.0\V120\Microsoft.CppBuild.targets(388,5): warning MSB8028: The intermediate directory (Debug\) contains files shared from another project (Box.vcxproj).  This can lead to incorrect clean and rebuild behavior.
     1>CustomBuild:
         fxc compile for debug: C:\Users\Michel\Documents\FrankLuna\Own\4 Shader\FX\color.fx
         Microsoft (R) Direct3D Shader Compiler 6.3.9600.16384
         Copyright (C) 2013 Microsoft. All rights reserved.
         
     1>CUSTOMBUILD : warning X4717: Effects deprecated for D3DCompiler_47
         
         compilation code save succeeded; see color.cod
         compilation object save succeeded; see C:\Users\Michel\Documents\FrankLuna\Own\4 Shader\FX\color.fxo
       Link:
         Box.vcxproj -> C:\Users\Michel\Documents\FrankLuna\Own\4 Shader\Debug\Chapter 06 Box.exe
     1>Done Building Project "C:\Users\Michel\Documents\FrankLuna\Own\4 Shader\Box.vcxproj" (Build target(s)).

Build succeeded.

Time Elapsed 00:00:00.20
