^C:\USERS\MICHEL\DOCUMENTS\FRANKLUNA\OWN\4 SHADER2\DEBUG\D3DAPP.OBJ|C:\USERS\MICHEL\DOCUMENTS\FRANKLUNA\OWN\4 SHADER2\DEBUG\D3DUTIL.OBJ|C:\USERS\MICHEL\DOCUMENTS\FRANKLUNA\OWN\4 SHADER2\DEBUG\EFFECTS.OBJ|C:\USERS\MICHEL\DOCUMENTS\FRANKLUNA\OWN\4 SHADER2\DEBUG\GAMETIMER.OBJ|C:\USERS\MICHEL\DOCUMENTS\FRANKLUNA\OWN\4 SHADER2\DEBUG\GEOMETRYGENERATOR.OBJ|C:\USERS\MICHEL\DOCUMENTS\FRANKLUNA\OWN\4 SHADER2\DEBUG\LIGHTHELPER.OBJ|C:\USERS\MICHEL\DOCUMENTS\FRANKLUNA\OWN\4 SHADER2\DEBUG\LITSKULLDEMO.OBJ|C:\USERS\MICHEL\DOCUMENTS\FRANKLUNA\OWN\4 SHADER2\DEBUG\MATHHELPER.OBJ|C:\USERS\MICHEL\DOCUMENTS\FRANKLUNA\OWN\4 SHADER2\DEBUG\VERTEX.OBJ|C:\USERS\MICHEL\DOCUMENTS\FRANKLUNA\OWN\4 SHADER2\DEBUG\WAVES.OBJ
C:\PROGRAM FILES (X86)\WINDOWS KITS\8.1\LIB\WINV6.3\UM\X86\D3D11.LIB
C:\PROGRAM FILES (X86)\MICROSOFT DIRECTX SDK (JUNE 2010)\LIB\X86\D3DX11D.LIB
C:\PROGRAM FILES (X86)\WINDOWS KITS\8.1\LIB\WINV6.3\UM\X86\D3DCOMPILER.LIB
C:\USERS\MICHEL\DOCUMENTS\FRANKLUNA\COMMON\EFFECTS11D.LIB
C:\PROGRAM FILES (X86)\MICROSOFT DIRECTX SDK (JUNE 2010)\LIB\X86\DXERR.LIB
C:\PROGRAM FILES (X86)\WINDOWS KITS\8.1\LIB\WINV6.3\UM\X86\DXGI.LIB
C:\PROGRAM FILES (X86)\WINDOWS KITS\8.1\LIB\WINV6.3\UM\X86\DXGUID.LIB
C:\PROGRAM FILES (X86)\WINDOWS KITS\8.1\LIB\WINV6.3\UM\X86\KERNEL32.LIB
C:\PROGRAM FILES (X86)\WINDOWS KITS\8.1\LIB\WINV6.3\UM\X86\USER32.LIB
C:\PROGRAM FILES (X86)\WINDOWS KITS\8.1\LIB\WINV6.3\UM\X86\GDI32.LIB
C:\PROGRAM FILES (X86)\WINDOWS KITS\8.1\LIB\WINV6.3\UM\X86\WINSPOOL.LIB
C:\PROGRAM FILES (X86)\WINDOWS KITS\8.1\LIB\WINV6.3\UM\X86\COMDLG32.LIB
C:\PROGRAM FILES (X86)\WINDOWS KITS\8.1\LIB\WINV6.3\UM\X86\ADVAPI32.LIB
C:\PROGRAM FILES (X86)\WINDOWS KITS\8.1\LIB\WINV6.3\UM\X86\SHELL32.LIB
C:\PROGRAM FILES (X86)\WINDOWS KITS\8.1\LIB\WINV6.3\UM\X86\OLE32.LIB
C:\PROGRAM FILES (X86)\WINDOWS KITS\8.1\LIB\WINV6.3\UM\X86\OLEAUT32.LIB
C:\PROGRAM FILES (X86)\WINDOWS KITS\8.1\LIB\WINV6.3\UM\X86\UUID.LIB
C:\PROGRAM FILES (X86)\WINDOWS KITS\8.1\LIB\WINV6.3\UM\X86\ODBC32.LIB
C:\PROGRAM FILES (X86)\WINDOWS KITS\8.1\LIB\WINV6.3\UM\X86\ODBCCP32.LIB
C:\USERS\MICHEL\DOCUMENTS\FRANKLUNA\OWN\4 SHADER2\DEBUG\D3DAPP.OBJ
C:\USERS\MICHEL\DOCUMENTS\FRANKLUNA\OWN\4 SHADER2\DEBUG\D3DUTIL.OBJ
C:\USERS\MICHEL\DOCUMENTS\FRANKLUNA\OWN\4 SHADER2\DEBUG\GAMETIMER.OBJ
C:\USERS\MICHEL\DOCUMENTS\FRANKLUNA\OWN\4 SHADER2\DEBUG\GEOMETRYGENERATOR.OBJ
C:\USERS\MICHEL\DOCUMENTS\FRANKLUNA\OWN\4 SHADER2\DEBUG\LIGHTHELPER.OBJ
C:\USERS\MICHEL\DOCUMENTS\FRANKLUNA\OWN\4 SHADER2\DEBUG\MATHHELPER.OBJ
C:\USERS\MICHEL\DOCUMENTS\FRANKLUNA\OWN\4 SHADER2\DEBUG\WAVES.OBJ
C:\USERS\MICHEL\DOCUMENTS\FRANKLUNA\OWN\4 SHADER2\DEBUG\EFFECTS.OBJ
C:\USERS\MICHEL\DOCUMENTS\FRANKLUNA\OWN\4 SHADER2\DEBUG\LITSKULLDEMO.OBJ
C:\USERS\MICHEL\DOCUMENTS\FRANKLUNA\OWN\4 SHADER2\DEBUG\VERTEX.OBJ
C:\WINDOWS\SYSTEM32\TZRES.DLL
C:\WINDOWS\GLOBALIZATION\SORTING\SORTDEFAULT.NLS
C:\PROGRAM FILES (X86)\MICROSOFT VISUAL STUDIO 12.0\VC\LIB\MSVCPRTD.LIB
C:\PROGRAM FILES (X86)\MICROSOFT VISUAL STUDIO 12.0\VC\LIB\MSVCRTD.LIB
C:\PROGRAM FILES (X86)\MICROSOFT VISUAL STUDIO 12.0\VC\LIB\OLDNAMES.LIB
^C:\USERS\MICHEL\DOCUMENTS\FRANKLUNA\OWN\4 SHADER3\DEBUG\D3DAPP.OBJ|C:\USERS\MICHEL\DOCUMENTS\FRANKLUNA\OWN\4 SHADER3\DEBUG\D3DUTIL.OBJ|C:\USERS\MICHEL\DOCUMENTS\FRANKLUNA\OWN\4 SHADER3\DEBUG\EFFECTS.OBJ|C:\USERS\MICHEL\DOCUMENTS\FRANKLUNA\OWN\4 SHADER3\DEBUG\GAMETIMER.OBJ|C:\USERS\MICHEL\DOCUMENTS\FRANKLUNA\OWN\4 SHADER3\DEBUG\GEOMETRYGENERATOR.OBJ|C:\USERS\MICHEL\DOCUMENTS\FRANKLUNA\OWN\4 SHADER3\DEBUG\LIGHTHELPER.OBJ|C:\USERS\MICHEL\DOCUMENTS\FRANKLUNA\OWN\4 SHADER3\DEBUG\LITSKULLDEMO.OBJ|C:\USERS\MICHEL\DOCUMENTS\FRANKLUNA\OWN\4 SHADER3\DEBUG\MATHHELPER.OBJ|C:\USERS\MICHEL\DOCUMENTS\FRANKLUNA\OWN\4 SHADER3\DEBUG\VERTEX.OBJ|C:\USERS\MICHEL\DOCUMENTS\FRANKLUNA\OWN\4 SHADER3\DEBUG\WAVES.OBJ
C:\PROGRAM FILES (X86)\WINDOWS KITS\8.1\LIB\WINV6.3\UM\X86\D3D11.LIB
C:\PROGRAM FILES (X86)\MICROSOFT DIRECTX SDK (JUNE 2010)\LIB\X86\D3DX11D.LIB
C:\PROGRAM FILES (X86)\WINDOWS KITS\8.1\LIB\WINV6.3\UM\X86\D3DCOMPILER.LIB
C:\USERS\MICHEL\DOCUMENTS\FRANKLUNA\COMMON\EFFECTS11D.LIB
C:\PROGRAM FILES (X86)\MICROSOFT DIRECTX SDK (JUNE 2010)\LIB\X86\DXERR.LIB
C:\PROGRAM FILES (X86)\WINDOWS KITS\8.1\LIB\WINV6.3\UM\X86\DXGI.LIB
C:\PROGRAM FILES (X86)\WINDOWS KITS\8.1\LIB\WINV6.3\UM\X86\DXGUID.LIB
C:\PROGRAM FILES (X86)\WINDOWS KITS\8.1\LIB\WINV6.3\UM\X86\KERNEL32.LIB
C:\PROGRAM FILES (X86)\WINDOWS KITS\8.1\LIB\WINV6.3\UM\X86\USER32.LIB
C:\PROGRAM FILES (X86)\WINDOWS KITS\8.1\LIB\WINV6.3\UM\X86\GDI32.LIB
C:\PROGRAM FILES (X86)\WINDOWS KITS\8.1\LIB\WINV6.3\UM\X86\WINSPOOL.LIB
C:\PROGRAM FILES (X86)\WINDOWS KITS\8.1\LIB\WINV6.3\UM\X86\COMDLG32.LIB
C:\PROGRAM FILES (X86)\WINDOWS KITS\8.1\LIB\WINV6.3\UM\X86\ADVAPI32.LIB
C:\PROGRAM FILES (X86)\WINDOWS KITS\8.1\LIB\WINV6.3\UM\X86\SHELL32.LIB
C:\PROGRAM FILES (X86)\WINDOWS KITS\8.1\LIB\WINV6.3\UM\X86\OLE32.LIB
C:\PROGRAM FILES (X86)\WINDOWS KITS\8.1\LIB\WINV6.3\UM\X86\OLEAUT32.LIB
C:\PROGRAM FILES (X86)\WINDOWS KITS\8.1\LIB\WINV6.3\UM\X86\UUID.LIB
C:\PROGRAM FILES (X86)\WINDOWS KITS\8.1\LIB\WINV6.3\UM\X86\ODBC32.LIB
C:\PROGRAM FILES (X86)\WINDOWS KITS\8.1\LIB\WINV6.3\UM\X86\ODBCCP32.LIB
C:\USERS\MICHEL\DOCUMENTS\FRANKLUNA\OWN\4 SHADER3\DEBUG\D3DAPP.OBJ
C:\USERS\MICHEL\DOCUMENTS\FRANKLUNA\OWN\4 SHADER3\DEBUG\D3DUTIL.OBJ
C:\USERS\MICHEL\DOCUMENTS\FRANKLUNA\OWN\4 SHADER3\DEBUG\GAMETIMER.OBJ
C:\USERS\MICHEL\DOCUMENTS\FRANKLUNA\OWN\4 SHADER3\DEBUG\GEOMETRYGENERATOR.OBJ
C:\USERS\MICHEL\DOCUMENTS\FRANKLUNA\OWN\4 SHADER3\DEBUG\LIGHTHELPER.OBJ
C:\USERS\MICHEL\DOCUMENTS\FRANKLUNA\OWN\4 SHADER3\DEBUG\MATHHELPER.OBJ
C:\USERS\MICHEL\DOCUMENTS\FRANKLUNA\OWN\4 SHADER3\DEBUG\WAVES.OBJ
C:\USERS\MICHEL\DOCUMENTS\FRANKLUNA\OWN\4 SHADER3\DEBUG\EFFECTS.OBJ
C:\USERS\MICHEL\DOCUMENTS\FRANKLUNA\OWN\4 SHADER3\DEBUG\LITSKULLDEMO.OBJ
C:\USERS\MICHEL\DOCUMENTS\FRANKLUNA\OWN\4 SHADER3\DEBUG\VERTEX.OBJ
C:\WINDOWS\SYSTEM32\TZRES.DLL
C:\WINDOWS\GLOBALIZATION\SORTING\SORTDEFAULT.NLS
C:\PROGRAM FILES (X86)\MICROSOFT VISUAL STUDIO 12.0\VC\LIB\MSVCPRTD.LIB
C:\PROGRAM FILES (X86)\MICROSOFT VISUAL STUDIO 12.0\VC\LIB\MSVCRTD.LIB
C:\PROGRAM FILES (X86)\MICROSOFT VISUAL STUDIO 12.0\VC\LIB\OLDNAMES.LIB
