^C:\USERS\MICHEL\DOCUMENTS\FRANKLUNA\OWN\4 REFLECT\FX\BASIC.FX
C:\USERS\MICHEL\DOCUMENTS\FRANKLUNA\OWN\4 REFLECT\FX\BASIC.FXO
^C:\USERS\MICHEL\DOCUMENTS\FRANKLUNA\OWN\4 REFLECT\FX\SKY.FX
C:\USERS\MICHEL\DOCUMENTS\FRANKLUNA\OWN\4 REFLECT\FX\SKY.FXO
