^C:\USERS\MICHEL\DOCUMENTS\FRANKLUNA\COMMON\D3DAPP.CPP|C:\USERS\MICHEL\DOCUMENTS\FRANKLUNA\COMMON\D3DUTIL.CPP|C:\USERS\MICHEL\DOCUMENTS\FRANKLUNA\COMMON\GAMETIMER.CPP|C:\USERS\MICHEL\DOCUMENTS\FRANKLUNA\COMMON\GEOMETRYGENERATOR.CPP|C:\USERS\MICHEL\DOCUMENTS\FRANKLUNA\COMMON\LIGHTHELPER.CPP|C:\USERS\MICHEL\DOCUMENTS\FRANKLUNA\COMMON\MATHHELPER.CPP|C:\USERS\MICHEL\DOCUMENTS\FRANKLUNA\COMMON\WAVES.CPP|C:\USERS\MICHEL\DOCUMENTS\FRANKLUNA\OWN\4 SHADER2\EFFECTS.CPP|C:\USERS\MICHEL\DOCUMENTS\FRANKLUNA\OWN\4 SHADER2\LITSKULLDEMO.CPP|C:\USERS\MICHEL\DOCUMENTS\FRANKLUNA\OWN\4 SHADER2\VERTEX.CPP
C:\USERS\MICHEL\DOCUMENTS\FRANKLUNA\OWN\4 SHADER2\DEBUG\VC120.PDB
C:\USERS\MICHEL\DOCUMENTS\FRANKLUNA\OWN\4 SHADER2\DEBUG\VC120.IDB
C:\USERS\MICHEL\DOCUMENTS\FRANKLUNA\OWN\4 SHADER2\DEBUG\D3DAPP.OBJ
C:\USERS\MICHEL\DOCUMENTS\FRANKLUNA\OWN\4 SHADER2\DEBUG\D3DUTIL.OBJ
C:\USERS\MICHEL\DOCUMENTS\FRANKLUNA\OWN\4 SHADER2\DEBUG\GAMETIMER.OBJ
C:\USERS\MICHEL\DOCUMENTS\FRANKLUNA\OWN\4 SHADER2\DEBUG\GEOMETRYGENERATOR.OBJ
C:\USERS\MICHEL\DOCUMENTS\FRANKLUNA\OWN\4 SHADER2\DEBUG\LIGHTHELPER.OBJ
C:\USERS\MICHEL\DOCUMENTS\FRANKLUNA\OWN\4 SHADER2\DEBUG\MATHHELPER.OBJ
C:\USERS\MICHEL\DOCUMENTS\FRANKLUNA\OWN\4 SHADER2\DEBUG\WAVES.OBJ
C:\USERS\MICHEL\DOCUMENTS\FRANKLUNA\OWN\4 SHADER2\DEBUG\EFFECTS.OBJ
C:\USERS\MICHEL\DOCUMENTS\FRANKLUNA\OWN\4 SHADER2\DEBUG\LITSKULLDEMO.OBJ
C:\USERS\MICHEL\DOCUMENTS\FRANKLUNA\OWN\4 SHADER2\DEBUG\VERTEX.OBJ
^C:\USERS\MICHEL\DOCUMENTS\FRANKLUNA\COMMON\D3DAPP.CPP
C:\USERS\MICHEL\DOCUMENTS\FRANKLUNA\OWN\4 SHADER2\DEBUG\VC120.PDB
^C:\USERS\MICHEL\DOCUMENTS\FRANKLUNA\COMMON\D3DUTIL.CPP
C:\USERS\MICHEL\DOCUMENTS\FRANKLUNA\OWN\4 SHADER2\DEBUG\VC120.PDB
^C:\USERS\MICHEL\DOCUMENTS\FRANKLUNA\COMMON\GAMETIMER.CPP
C:\USERS\MICHEL\DOCUMENTS\FRANKLUNA\OWN\4 SHADER2\DEBUG\VC120.PDB
^C:\USERS\MICHEL\DOCUMENTS\FRANKLUNA\COMMON\GEOMETRYGENERATOR.CPP
C:\USERS\MICHEL\DOCUMENTS\FRANKLUNA\OWN\4 SHADER2\DEBUG\VC120.PDB
C:\USERS\MICHEL\DOCUMENTS\FRANKLUNA\OWN\4 SHADER2\DEBUG\VC120.IDB
C:\USERS\MICHEL\DOCUMENTS\FRANKLUNA\OWN\4 SHADER2\DEBUG\GEOMETRYGENERATOR.OBJ
^C:\USERS\MICHEL\DOCUMENTS\FRANKLUNA\COMMON\LIGHTHELPER.CPP
C:\USERS\MICHEL\DOCUMENTS\FRANKLUNA\OWN\4 SHADER2\DEBUG\VC120.PDB
^C:\USERS\MICHEL\DOCUMENTS\FRANKLUNA\COMMON\MATHHELPER.CPP
C:\USERS\MICHEL\DOCUMENTS\FRANKLUNA\OWN\4 SHADER2\DEBUG\VC120.PDB
^C:\USERS\MICHEL\DOCUMENTS\FRANKLUNA\COMMON\WAVES.CPP
C:\USERS\MICHEL\DOCUMENTS\FRANKLUNA\OWN\4 SHADER2\DEBUG\VC120.PDB
^C:\USERS\MICHEL\DOCUMENTS\FRANKLUNA\OWN\4 SHADER2\EFFECTS.CPP
C:\USERS\MICHEL\DOCUMENTS\FRANKLUNA\OWN\4 SHADER2\DEBUG\VC120.PDB
^C:\USERS\MICHEL\DOCUMENTS\FRANKLUNA\OWN\4 SHADER2\LITSKULLDEMO.CPP
C:\USERS\MICHEL\DOCUMENTS\FRANKLUNA\OWN\4 SHADER2\DEBUG\VC120.PDB
C:\USERS\MICHEL\DOCUMENTS\FRANKLUNA\OWN\4 SHADER2\DEBUG\VC120.IDB
C:\USERS\MICHEL\DOCUMENTS\FRANKLUNA\OWN\4 SHADER2\DEBUG\LITSKULLDEMO.OBJ
^C:\USERS\MICHEL\DOCUMENTS\FRANKLUNA\OWN\4 SHADER2\VERTEX.CPP
C:\USERS\MICHEL\DOCUMENTS\FRANKLUNA\OWN\4 SHADER2\DEBUG\VC120.PDB
^C:\USERS\MICHEL\DOCUMENTS\FRANKLUNA\OWN\4 SHADER2\EFFECTS.CPP|C:\USERS\MICHEL\DOCUMENTS\FRANKLUNA\OWN\4 SHADER2\LITSKULLDEMO.CPP|C:\USERS\MICHEL\DOCUMENTS\FRANKLUNA\OWN\4 SHADER2\VERTEX.CPP
C:\USERS\MICHEL\DOCUMENTS\FRANKLUNA\OWN\4 SHADER2\DEBUG\VC120.PDB
C:\USERS\MICHEL\DOCUMENTS\FRANKLUNA\OWN\4 SHADER2\DEBUG\VC120.IDB
C:\USERS\MICHEL\DOCUMENTS\FRANKLUNA\OWN\4 SHADER2\DEBUG\EFFECTS.OBJ
C:\USERS\MICHEL\DOCUMENTS\FRANKLUNA\OWN\4 SHADER2\DEBUG\LITSKULLDEMO.OBJ
C:\USERS\MICHEL\DOCUMENTS\FRANKLUNA\OWN\4 SHADER2\DEBUG\VERTEX.OBJ
