^C:\USERS\NCKORTLEVE\DROPBOX\GAME-DEVELOPMENT-3\GRAPHICS-PROGRAMMING\LUNA SOURCE CODE\LUNACH1_10\LUNACH1_10\CHAPTER 6 DRAWING IN DIRECT3D\BOX\BOXDEMO.CPP|C:\USERS\NCKORTLEVE\DROPBOX\GAME-DEVELOPMENT-3\GRAPHICS-PROGRAMMING\LUNA SOURCE CODE\LUNACH1_10\LUNACH1_10\COMMON\D3DAPP.CPP|C:\USERS\NCKORTLEVE\DROPBOX\GAME-DEVELOPMENT-3\GRAPHICS-PROGRAMMING\LUNA SOURCE CODE\LUNACH1_10\LUNACH1_10\COMMON\D3DUTIL.CPP|C:\USERS\NCKORTLEVE\DROPBOX\GAME-DEVELOPMENT-3\GRAPHICS-PROGRAMMING\LUNA SOURCE CODE\LUNACH1_10\LUNACH1_10\COMMON\GAMETIMER.CPP|C:\USERS\NCKORTLEVE\DROPBOX\GAME-DEVELOPMENT-3\GRAPHICS-PROGRAMMING\LUNA SOURCE CODE\LUNACH1_10\LUNACH1_10\COMMON\GEOMETRYGENERATOR.CPP|C:\USERS\NCKORTLEVE\DROPBOX\GAME-DEVELOPMENT-3\GRAPHICS-PROGRAMMING\LUNA SOURCE CODE\LUNACH1_10\LUNACH1_10\COMMON\MATHHELPER.CPP
C:\USERS\NCKORTLEVE\DROPBOX\GAME-DEVELOPMENT-3\GRAPHICS-PROGRAMMING\LUNA SOURCE CODE\LUNACH1_10\LUNACH1_10\CHAPTER 6 DRAWING IN DIRECT3D\BOX\RELEASE\VC120.PDB
C:\USERS\NCKORTLEVE\DROPBOX\GAME-DEVELOPMENT-3\GRAPHICS-PROGRAMMING\LUNA SOURCE CODE\LUNACH1_10\LUNACH1_10\CHAPTER 6 DRAWING IN DIRECT3D\BOX\RELEASE\MATHHELPER.OBJ
C:\USERS\NCKORTLEVE\DROPBOX\GAME-DEVELOPMENT-3\GRAPHICS-PROGRAMMING\LUNA SOURCE CODE\LUNACH1_10\LUNACH1_10\CHAPTER 6 DRAWING IN DIRECT3D\BOX\RELEASE\GEOMETRYGENERATOR.OBJ
C:\USERS\NCKORTLEVE\DROPBOX\GAME-DEVELOPMENT-3\GRAPHICS-PROGRAMMING\LUNA SOURCE CODE\LUNACH1_10\LUNACH1_10\CHAPTER 6 DRAWING IN DIRECT3D\BOX\RELEASE\GAMETIMER.OBJ
C:\USERS\NCKORTLEVE\DROPBOX\GAME-DEVELOPMENT-3\GRAPHICS-PROGRAMMING\LUNA SOURCE CODE\LUNACH1_10\LUNACH1_10\CHAPTER 6 DRAWING IN DIRECT3D\BOX\RELEASE\D3DUTIL.OBJ
C:\USERS\NCKORTLEVE\DROPBOX\GAME-DEVELOPMENT-3\GRAPHICS-PROGRAMMING\LUNA SOURCE CODE\LUNACH1_10\LUNACH1_10\CHAPTER 6 DRAWING IN DIRECT3D\BOX\RELEASE\D3DAPP.OBJ
^C:\USERS\NCKORTLEVE\DROPBOX\GAME-DEVELOPMENT-3\GRAPHICS-PROGRAMMING\LUNA SOURCE CODE\LUNACH1_10\LUNACH1_10\COMMON\D3DAPP.CPP
C:\USERS\NCKORTLEVE\DROPBOX\GAME-DEVELOPMENT-3\GRAPHICS-PROGRAMMING\LUNA SOURCE CODE\LUNACH1_10\LUNACH1_10\CHAPTER 6 DRAWING IN DIRECT3D\BOX\RELEASE\D3DAPP.OBJ
^C:\USERS\NCKORTLEVE\DROPBOX\GAME-DEVELOPMENT-3\GRAPHICS-PROGRAMMING\LUNA SOURCE CODE\LUNACH1_10\LUNACH1_10\COMMON\D3DUTIL.CPP
C:\USERS\NCKORTLEVE\DROPBOX\GAME-DEVELOPMENT-3\GRAPHICS-PROGRAMMING\LUNA SOURCE CODE\LUNACH1_10\LUNACH1_10\CHAPTER 6 DRAWING IN DIRECT3D\BOX\RELEASE\D3DUTIL.OBJ
^C:\USERS\NCKORTLEVE\DROPBOX\GAME-DEVELOPMENT-3\GRAPHICS-PROGRAMMING\LUNA SOURCE CODE\LUNACH1_10\LUNACH1_10\COMMON\GAMETIMER.CPP
C:\USERS\NCKORTLEVE\DROPBOX\GAME-DEVELOPMENT-3\GRAPHICS-PROGRAMMING\LUNA SOURCE CODE\LUNACH1_10\LUNACH1_10\CHAPTER 6 DRAWING IN DIRECT3D\BOX\RELEASE\GAMETIMER.OBJ
^C:\USERS\NCKORTLEVE\DROPBOX\GAME-DEVELOPMENT-3\GRAPHICS-PROGRAMMING\LUNA SOURCE CODE\LUNACH1_10\LUNACH1_10\COMMON\GEOMETRYGENERATOR.CPP
C:\USERS\NCKORTLEVE\DROPBOX\GAME-DEVELOPMENT-3\GRAPHICS-PROGRAMMING\LUNA SOURCE CODE\LUNACH1_10\LUNACH1_10\CHAPTER 6 DRAWING IN DIRECT3D\BOX\RELEASE\GEOMETRYGENERATOR.OBJ
^C:\USERS\NCKORTLEVE\DROPBOX\GAME-DEVELOPMENT-3\GRAPHICS-PROGRAMMING\LUNA SOURCE CODE\LUNACH1_10\LUNACH1_10\COMMON\MATHHELPER.CPP
C:\USERS\NCKORTLEVE\DROPBOX\GAME-DEVELOPMENT-3\GRAPHICS-PROGRAMMING\LUNA SOURCE CODE\LUNACH1_10\LUNACH1_10\CHAPTER 6 DRAWING IN DIRECT3D\BOX\RELEASE\MATHHELPER.OBJ
